Distance_(pixels),Gray_Value
0,0.97303
1,0.95819
2,0.95296
3,0.95771
4,0.96516
5,0.98074
6,0.98294
7,0.98051
8,0.96920
9,0.96236
10,0.96670
11,0.96026
12,0.94889
13,0.94886
14,0.95476
15,0.96514
16,0.94193
17,0.92774
18,0.93733
19,0.93206
20,0.94304
21,0.93658
22,0.91347
23,0.90595
24,0.91736
25,0.93477
26,0.93627
27,0.91560
28,0.90741
29,0.91675
30,0.88892
31,0.87406
32,0.90342
33,0.90928
34,0.90459
35,0.89265
36,0.89279
37,0.89841
38,0.88126
39,0.86801
40,0.87736
41,0.86583
42,0.86660
43,0.86928
44,0.83844
45,0.84071
46,0.85246
47,0.85739
48,0.84393
49,0.82930
50,0.82874
51,0.82123
52,0.80478
53,0.78637
54,0.78224
55,0.79202
56,0.78149
57,0.77365
58,0.75627
59,0.73694
60,0.73830
61,0.74444
62,0.73322
63,0.69829
64,0.68959
65,0.68595
66,0.63793
67,0.61071
68,0.61012
69,0.58293
70,0.55673
71,0.53820
72,0.52137
73,0.48937
74,0.46087
75,0.44114
76,0.39332
77,0.35432
78,0.33166
79,0.30316
80,0.26167
81,0.23724
82,0.19774
83,0.16036
84,0.13093
85,0.08982
86,0.06155
87,0.03647
88,0.03264
89,0.01759
90,0.00747
91,0.01145
92,0.02161
93,0.04270
94,0.06651
95,0.08186
96,0.10290
97,0.15800
98,0.20199
99,0.23311
100,0.27345
101,0.30674
102,0.35303
103,0.39964
104,0.41692
105,0.43048
106,0.46990
107,0.50366
108,0.53452
109,0.56438
110,0.58524
111,0.60477
112,0.62583
113,0.63404
114,0.63561
115,0.66759
116,0.69389
117,0.70794
118,0.72441
119,0.72379
120,0.73177
121,0.77000
122,0.79190
123,0.79645
124,0.78600
125,0.77802
126,0.79275
127,0.80832
128,0.82074
129,0.81651
130,0.80899
131,0.81593
132,0.84228
133,0.85372
134,0.84405
135,0.84265
136,0.84992
137,0.84167
138,0.83342
139,0.85199
140,0.86130
141,0.88270
142,0.90698
143,0.90202
144,0.89831
145,0.89531
146,0.88939
147,0.89716
148,0.92229
149,0.92274
150,0.90867
151,0.92298
152,0.91574
153,0.89584
154,0.90843
155,0.91791
156,0.92055
157,0.92302
158,0.91683
159,0.91363
160,0.92295
161,0.92339
162,0.92856
163,0.94723
164,0.92419
165,0.91279
166,0.92662
167,0.93156
168,0.93584
169,0.94345
170,0.94895
171,0.93810
172,0.94628
173,0.95386
174,0.93147
175,0.93065
176,0.95460
177,0.95293
178,0.95567
179,0.94552
180,0.93261
181,0.93267
182,0.91687
183,0.90303
184,0.89847
185,0.88177
186,0.85055
187,0.83629
188,0.83040
189,0.83376
190,0.85149
191,0.86167
192,0.87881
193,0.88819
194,0.88237
195,0.89470
196,0.92297
197,0.93549
198,0.93188
199,0.94405
200,0.94537
201,0.93825
202,0.95724
203,0.97630
204,0.98814
205,0.98987
206,0.98130
207,0.98716
208,0.99004
209,0.97153
210,0.96046
211,0.97835
212,0.99482
213,1.00047
214,1.00779
215,1.01234
216,0.98929
217,0.95488
218,0.93951
219,0.94705
220,0.98622
221,1.00709
222,0.98804
223,0.98719
224,0.99015
225,0.98196
226,0.99005
227,0.98658
228,0.97569
229,0.99101
230,1.00602
231,0.99127
232,0.98618
233,0.98155
234,0.95824
235,0.94951
236,0.94100
237,0.91713
238,0.89890
239,0.87335
240,0.85577
241,0.86104
242,0.87388
243,0.89612
244,0.92887
245,0.95830
246,0.95613
247,0.96445
248,0.97603
249,0.98121
250,1.00079
251,0.99118
252,0.97833
253,0.99472
254,0.99460
255,1.00504
256,1.01480
257,1.00887
258,1.01543
259,1.00800
260,0.99842
261,0.98657
262,0.97279
263,0.96407
264,0.95699
265,0.96124
266,0.95117
267,0.95406
268,0.95717
269,0.94022
270,0.92632
271,0.89699
272,0.87816
273,0.86310
274,0.84222
275,0.81818
276,0.79671
277,0.77351
278,0.73986
279,0.71200
280,0.67211
281,0.64295
282,0.61284
283,0.57065
284,0.57350
285,0.58263
286,0.60859
287,0.65024
288,0.67727
289,0.71330
290,0.76768
291,0.82296
292,0.85058
293,0.89786
294,0.94572
295,0.98063
296,1.00544
297,1.01256
298,1.01795
299,1.00440
300,1.00195
301,1.00749
302,1.00204
303,0.99212
304,0.98198
305,0.97646
306,0.99509
307,1.00493
308,0.98428
309,0.98308
310,1.00239
311,1.00202
312,0.99506
313,1.00227
314,0.99108
315,0.99074
316,1.00379
317,1.00829
318,1.00891
319,1.00098
320,1.01226
321,1.02630
322,1.02873
323,1.02378
324,0.99456
325,0.98630
326,1.00188
327,0.99352
328,0.97070
329,0.98446
330,1.02427
331,1.03510
332,1.02371
333,1.01714
334,1.01894
335,1.02712
336,1.03410
337,1.03467
338,1.02472
339,1.00443
340,1.00363
341,1.02072
342,1.00905
343,0.99344
344,1.00473
345,1.01362
346,1.01692
347,1.01670
348,1.00939
349,1.01025
350,1.02025
351,1.01485
352,1.03215
353,1.04446
354,1.01887
355,1.00463
356,1.00882
357,1.01116
358,1.00962
359,1.02341
360,1.03683
361,1.01975
362,1.00344
363,1.02790
364,1.02596
365,1.01921
366,1.01158
367,0.99755
368,0.99140
369,0.96731
370,0.96301
371,0.95706
372,0.96107
373,0.98390
374,0.99447
375,1.00653
376,1.00061
377,0.96759
378,0.93952
379,0.94553
380,0.97332
381,1.00426
382,1.01114
383,0.99666
384,1.00349
385,1.00922
386,1.02361
387,1.03297
388,1.01802
389,1.01795
390,1.01513
391,1.01342
392,1.01563
393,1.01331
394,1.01772
395,1.01244
396,1.00919
397,1.02089
398,1.01555
399,1.01312
400,1.02095
401,1.02060
402,1.02933
403,1.01769
404,1.01363
405,1.03157
406,1.04001
407,1.04183
408,1.03245
409,1.01833
410,1.02524
411,1.03423
412,1.01435
413,1.01437
414,1.03849
415,1.04142
416,1.02000
417,1.01811
418,1.03838
419,1.03933
420,1.03410
421,1.02936
422,1.00621
423,1.00122
424,1.01820
425,1.02733
426,1.02090
427,1.02020
428,1.02545
429,1.01912
430,1.02444
431,1.01103
432,1.01351
433,1.02814
434,1.01317
435,1.00943
436,1.00951
437,1.01266
438,1.00272
439,0.98383
440,0.98544
441,0.99161
442,0.98072
443,0.95789
444,0.94770
445,0.95582
446,0.96007
447,0.93898
448,0.92951
449,0.91962
450,0.90920
451,0.90890
452,0.89321
453,0.89181
454,0.89564
455,0.91737
456,0.93581
457,0.92909
458,0.93533
459,0.89985
460,0.84763
461,0.81011
462,0.79123
463,0.78418
464,0.76181
465,0.74405
466,0.72497
467,0.69745
468,0.67399
469,0.67009
470,0.66312
471,0.63445
472,0.59088
473,0.57127
474,0.55299
475,0.52626
476,0.48318
477,0.41245
478,0.38579
479,0.35360
480,0.29128
481,0.24722
482,0.21013
483,0.16479
484,0.13399
485,0.10290
486,0.05348
487,0.03605
488,0.00777
489,-0.00908
490,0.02365
491,0.03752
492,0.06291
493,0.11576
494,0.16295
495,0.19787
496,0.23701
497,0.27047
498,0.32716
499,0.38814
500,0.42630
501,0.47971
502,0.49742
503,0.52212
504,0.56465
505,0.57910
506,0.60671
507,0.65282
508,0.68036
509,0.69227
510,0.70871
511,0.73336
512,0.74984
513,0.76510
514,0.78558
515,0.78631
516,0.78827
517,0.80450
518,0.81528
519,0.82742
520,0.83845
521,0.82993
522,0.83587
523,0.86066
524,0.86220
525,0.84443
526,0.85213
527,0.86716
528,0.85892
529,0.86100
530,0.88167
531,0.90049
532,0.90290
533,0.88909
534,0.89407
535,0.89661
536,0.89692
537,0.91075
538,0.90063
539,0.87901
540,0.88051
541,0.89487
542,0.88886
543,0.90720
544,0.92995
545,0.92636
546,0.92553
547,0.92977
548,0.94470
549,0.94832
550,0.93112
551,0.94136
552,0.96616
553,0.96245
554,0.95594
555,0.96176
556,0.98192
557,0.97900
558,0.98624
559,0.98756
560,0.97926
561,1.00181
562,0.99831
563,0.98185
564,0.98462
565,0.98175
566,0.97847
567,0.98242
568,0.95886
569,0.95106
570,0.96399
571,0.94902
572,0.92677
573,0.92209
574,0.91843
575,0.90191
576,0.90287
577,0.91492
578,0.92435
579,0.91919
580,0.92105
581,0.93145
582,0.94598
583,0.96900
584,0.97874
585,0.98555
586,0.97372
587,0.96579
588,0.97906
589,0.99759
590,1.00203
591,1.00253
592,1.01612
593,1.00999
594,0.99984
595,1.00868
596,1.02026
597,1.02029
598,1.00819
599,1.01775
600,1.03258
601,1.03715
602,1.02821
603,1.01731
604,1.01296
605,1.00110
606,1.00610
607,1.00296
608,0.99138
609,1.01635
610,1.02338
611,1.00932
612,1.01996
613,1.01807
614,1.00803
615,1.02082
616,1.02995
617,1.02771
618,1.00738
619,0.96878
620,0.93325
621,0.90591
622,0.88006
623,0.86857
624,0.86578
625,0.86909
626,0.86548
627,0.85332
628,0.85948
629,0.86090
630,0.87104
631,0.88836
632,0.90861
633,0.92262
634,0.92688
635,0.94115
636,0.93693
637,0.93344
638,0.92178
639,0.89689
640,0.89950
641,0.92186
642,0.92345
