Distance_(pixels),Gray_Value
0,1.00163
1,1.01247
2,1.02807
3,1.02569
4,1.01577
5,1.01782
6,1.01986
7,1.01983
8,1.01355
9,0.99643
10,0.99419
11,0.98745
12,0.95701
13,0.93934
14,0.91915
15,0.87639
16,0.87151
17,0.88543
18,0.90452
19,0.92428
20,0.94402
21,0.95525
22,0.95179
23,0.95209
24,0.96392
25,0.97724
26,0.96727
27,0.96975
28,0.99073
29,0.98108
30,0.96039
31,0.95092
32,0.94139
33,0.94338
34,0.94936
35,0.93580
36,0.92547
37,0.93853
38,0.93884
39,0.93225
40,0.92483
41,0.93487
42,0.93388
43,0.92571
44,0.92526
45,0.91919
46,0.91257
47,0.91719
48,0.91898
49,0.91732
50,0.91111
51,0.88396
52,0.90134
53,0.91262
54,0.89976
55,0.90806
56,0.90176
57,0.89148
58,0.88575
59,0.88094
60,0.87804
61,0.87507
62,0.86818
63,0.85232
64,0.85846
65,0.87002
66,0.86514
67,0.85450
68,0.85457
69,0.83117
70,0.79764
71,0.80268
72,0.80599
73,0.80846
74,0.81301
75,0.79932
76,0.77297
77,0.77821
78,0.78037
79,0.76274
80,0.75010
81,0.72435
82,0.71502
83,0.72510
84,0.72039
85,0.69160
86,0.65859
87,0.64511
88,0.63039
89,0.59326
90,0.58893
91,0.58873
92,0.54715
93,0.50264
94,0.48076
95,0.46649
96,0.43911
97,0.40002
98,0.35919
99,0.33005
100,0.30179
101,0.26350
102,0.21312
103,0.17915
104,0.14335
105,0.10452
106,0.06603
107,0.03919
108,0.04074
109,0.01783
110,0.00910
111,0.00984
112,0.00394
113,0.03161
114,0.05968
115,0.07342
116,0.09793
117,0.13744
118,0.18375
119,0.22503
120,0.25848
121,0.28980
122,0.32422
123,0.36507
124,0.40626
125,0.43431
126,0.45464
127,0.49688
128,0.53548
129,0.56793
130,0.57285
131,0.58205
132,0.61274
133,0.62817
134,0.64986
135,0.65340
136,0.66859
137,0.69214
138,0.70041
139,0.71214
140,0.73366
141,0.75626
142,0.77113
143,0.77067
144,0.77729
145,0.80346
146,0.80515
147,0.78468
148,0.79006
149,0.81299
150,0.80329
151,0.81161
152,0.83384
153,0.83730
154,0.83117
155,0.82722
156,0.84755
157,0.85642
158,0.87209
159,0.87684
160,0.86832
161,0.87936
162,0.89137
163,0.89598
164,0.89889
165,0.90448
166,0.91074
167,0.90819
168,0.90856
169,0.92069
170,0.91549
171,0.91359
172,0.91604
173,0.93442
174,0.91936
175,0.90343
176,0.92204
177,0.92307
178,0.92960
179,0.92311
180,0.90204
181,0.89722
182,0.93078
183,0.95204
184,0.93631
185,0.91611
186,0.91802
187,0.92148
188,0.93069
189,0.94135
190,0.94759
191,0.94745
192,0.93530
193,0.93729
194,0.94088
195,0.95080
196,0.95257
197,0.92870
198,0.91821
199,0.92516
200,0.92360
201,0.92796
202,0.92599
203,0.93501
204,0.92838
205,0.89145
206,0.87873
207,0.86267
208,0.83041
209,0.82294
210,0.82882
211,0.82837
212,0.84395
213,0.86033
214,0.87758
215,0.89050
216,0.89459
217,0.91595
218,0.94439
219,0.96883
220,0.95611
221,0.94554
222,0.97365
223,0.99114
224,0.99164
225,0.98556
226,0.98691
227,0.98880
228,0.99404
229,0.99627
230,0.99780
231,0.98572
232,0.97589
233,0.99492
234,1.00006
235,0.99543
236,0.98759
237,0.98002
238,0.96622
239,0.94394
240,0.95377
241,0.97145
242,0.98382
243,0.98716
244,0.98440
245,0.99823
246,0.99579
247,0.98824
248,0.99243
249,0.99870
250,0.99838
251,0.99079
252,0.98342
253,0.98644
254,0.97457
255,0.96319
256,0.96191
257,0.95041
258,0.94650
259,0.91885
260,0.88787
261,0.86993
262,0.86675
263,0.88858
264,0.88936
265,0.91232
266,0.94203
267,0.94757
268,0.96611
269,0.97939
270,0.97585
271,0.96539
272,0.97768
273,1.00003
274,1.00179
275,0.98160
276,0.99232
277,1.01321
278,1.00710
279,0.99657
280,1.00010
281,0.99687
282,0.97352
283,0.97096
284,0.97694
285,0.98177
286,0.96249
287,0.95222
288,0.94512
289,0.93283
290,0.92672
291,0.90518
292,0.88677
293,0.87324
294,0.85685
295,0.83498
296,0.82392
297,0.79675
298,0.76272
299,0.73154
300,0.69549
301,0.65629
302,0.61869
303,0.58447
304,0.57060
305,0.58570
306,0.60120
307,0.62843
308,0.67495
309,0.71767
310,0.73932
311,0.78453
312,0.83979
313,0.88126
314,0.92940
315,0.97246
316,1.02550
317,1.04082
318,1.01991
319,1.01072
320,0.99917
321,1.00215
322,1.01540
323,1.02219
324,1.00094
325,1.01069
326,1.01025
327,1.00005
328,1.00673
329,0.97324
330,0.96359
331,0.98003
332,0.99069
333,0.99839
334,0.99965
335,1.00914
336,1.01632
337,1.00428
338,1.01513
339,1.03727
340,1.01771
341,0.98407
342,0.99154
343,1.01325
344,1.02870
345,1.02396
346,1.00484
347,0.98658
348,0.96751
349,0.97858
350,0.98703
351,0.99416
352,1.02423
353,1.04272
354,1.03603
355,1.02611
356,1.02672
357,1.01520
358,1.01705
359,1.00496
360,0.98890
361,1.01480
362,1.03012
363,1.01702
364,1.00857
365,1.02079
366,1.02301
367,1.02349
368,1.03366
369,1.04117
370,1.00968
371,0.99956
372,1.01776
373,1.02916
374,1.03644
375,1.01898
376,1.02079
377,1.02193
378,1.02259
379,1.02212
380,1.01503
381,1.01543
382,1.01873
383,1.02370
384,1.02102
385,1.01436
386,1.01521
387,1.00741
388,1.00163
389,0.98472
390,0.96016
391,0.98046
392,0.98233
393,0.97378
394,0.99173
395,1.02073
396,1.03046
397,0.98696
398,0.94729
399,0.93286
400,0.96307
401,1.00609
402,1.00033
403,0.99702
404,1.00982
405,1.00131
406,0.99305
407,1.01799
408,1.02957
409,1.02190
410,1.01510
411,1.00017
412,0.99813
413,1.00241
414,1.00419
415,1.01883
416,1.02088
417,1.02173
418,1.03653
419,1.02291
420,1.02662
421,1.03768
422,1.02400
423,1.02319
424,1.02232
425,1.01443
426,1.02253
427,1.00808
428,0.99872
429,1.01293
430,1.01163
431,1.02581
432,1.03351
433,1.01679
434,1.01813
435,1.01173
436,1.00196
437,1.01857
438,1.02676
439,1.00901
440,1.00537
441,1.01707
442,1.00218
443,0.99881
444,1.01670
445,1.01269
446,1.01252
447,1.02045
448,1.01488
449,1.02088
450,1.02797
451,1.03386
452,1.01374
453,1.00494
454,1.03019
455,1.03853
456,1.06773
457,1.11088
458,1.11199
459,1.05830
460,1.01592
461,0.99984
462,0.97310
463,0.95600
464,0.95645
465,0.97397
466,0.97814
467,0.94073
468,0.92895
469,0.94955
470,0.93110
471,0.90090
472,0.89342
473,0.90671
474,0.88301
475,0.86187
476,0.86570
477,0.84730
478,0.84152
479,0.83250
480,0.82233
481,0.80937
482,0.79634
483,0.77697
484,0.74929
485,0.75512
486,0.75644
487,0.73118
488,0.70979
489,0.68395
490,0.67370
491,0.65984
492,0.63184
493,0.60465
494,0.57214
495,0.55464
496,0.51941
497,0.46605
498,0.42205
499,0.39959
500,0.36720
501,0.30789
502,0.23804
503,0.19342
504,0.16344
505,0.11473
506,0.06177
507,0.04451
508,0.04578
509,0.01949
510,0.01646
511,0.02311
512,0.05092
513,0.09334
514,0.13476
515,0.17946
516,0.20581
517,0.24906
518,0.31208
519,0.36809
520,0.40134
521,0.41763
522,0.46683
523,0.52220
524,0.54554
525,0.57580
526,0.60250
527,0.62059
528,0.64454
529,0.67338
530,0.68664
531,0.70438
532,0.73428
533,0.73473
534,0.74451
535,0.76999
536,0.78561
537,0.77963
538,0.78669
539,0.81551
540,0.81475
541,0.81118
542,0.82330
543,0.83212
544,0.83998
545,0.84423
546,0.84200
547,0.85003
548,0.85325
549,0.87498
550,0.87407
551,0.87683
552,0.90463
553,0.88919
554,0.88280
555,0.88661
556,0.88339
557,0.87931
558,0.88204
559,0.89808
560,0.91596
561,0.91505
562,0.89763
563,0.89624
564,0.91023
565,0.90681
566,0.90688
567,0.90577
568,0.91930
569,0.94486
570,0.94292
571,0.93586
572,0.93888
573,0.94623
574,0.95788
575,0.97735
576,0.97478
577,0.97128
578,0.97843
579,0.98023
580,0.98249
581,0.98644
582,0.98376
583,0.98592
584,0.98628
585,0.98861
586,0.99502
587,0.99210
588,0.99342
589,0.98572
590,0.97215
591,0.96688
592,0.95392
593,0.93867
594,0.92591
595,0.91406
596,0.91245
597,0.90677
598,0.90154
599,0.91203
600,0.93641
601,0.94490
602,0.93521
603,0.94336
604,0.94917
605,0.95013
606,0.96865
607,0.98366
608,0.98916
609,1.00245
610,1.00963
611,1.00271
612,1.00255
613,1.01935
614,1.01878
615,1.01407
616,1.00519
617,1.00685
618,1.01802
619,1.01342
620,1.00816
621,1.00256
622,1.02752
623,1.01823
624,1.01312
625,1.03109
626,1.01217
627,1.00965
628,1.01744
629,1.00806
630,1.01949
631,1.03033
632,1.01464
633,1.02694
634,1.03704
635,1.02160
636,1.01297
637,1.01710
638,1.01667
639,0.98740
640,0.95897
641,0.93391
642,0.89315
