Distance_(pixels),Gray_Value
0,1.00803
1,1.00377
2,1.00672
3,1.02029
4,1.02360
5,1.01744
6,1.00463
7,0.99678
8,0.98688
9,0.97997
10,0.97175
11,0.95796
12,0.95691
13,0.93391
14,0.90581
15,0.88248
16,0.87277
17,0.88568
18,0.90804
19,0.92768
20,0.94710
21,0.96768
22,0.96075
23,0.95245
24,0.96985
25,0.97108
26,0.96584
27,0.96340
28,0.95551
29,0.96483
30,0.95550
31,0.93956
32,0.93086
33,0.93903
34,0.95041
35,0.94793
36,0.93249
37,0.91982
38,0.94620
39,0.94563
40,0.93293
41,0.95361
42,0.95501
43,0.93298
44,0.92809
45,0.92116
46,0.92937
47,0.93010
48,0.91151
49,0.91432
50,0.93208
51,0.91606
52,0.88961
53,0.89638
54,0.90440
55,0.89753
56,0.88792
57,0.88506
58,0.87455
59,0.87701
60,0.87972
61,0.87693
62,0.85411
63,0.83987
64,0.85771
65,0.85340
66,0.83967
67,0.85448
68,0.85000
69,0.83093
70,0.81596
71,0.79962
72,0.81667
73,0.83250
74,0.81024
75,0.79926
76,0.79020
77,0.77390
78,0.76070
79,0.75151
80,0.74632
81,0.71979
82,0.70318
83,0.70316
84,0.70883
85,0.69242
86,0.67102
87,0.63889
88,0.60721
89,0.58592
90,0.55786
91,0.55514
92,0.54736
93,0.52109
94,0.50003
95,0.46886
96,0.42633
97,0.38561
98,0.34499
99,0.31884
100,0.29239
101,0.26293
102,0.21844
103,0.18607
104,0.15431
105,0.11075
106,0.08841
107,0.07063
108,0.03688
109,0.00966
110,0.01122
111,0.02461
112,0.03056
113,0.04292
114,0.05837
115,0.06791
116,0.10470
117,0.13996
118,0.17165
119,0.21599
120,0.25159
121,0.30040
122,0.33665
123,0.35309
124,0.39210
125,0.44062
126,0.46625
127,0.48927
128,0.52237
129,0.53483
130,0.56567
131,0.59493
132,0.61463
133,0.63748
134,0.64886
135,0.66721
136,0.66781
137,0.67859
138,0.69992
139,0.70765
140,0.72831
141,0.75309
142,0.75631
143,0.75601
144,0.77571
145,0.79670
146,0.79518
147,0.79212
148,0.78891
149,0.78946
150,0.81905
151,0.83373
152,0.83606
153,0.84054
154,0.83844
155,0.83766
156,0.84788
157,0.85726
158,0.85094
159,0.85788
160,0.88064
161,0.88678
162,0.88298
163,0.89938
164,0.90209
165,0.90026
166,0.91548
167,0.92169
168,0.91317
169,0.90627
170,0.91756
171,0.91968
172,0.90874
173,0.91408
174,0.92921
175,0.92259
176,0.93098
177,0.93639
178,0.92048
179,0.90709
180,0.90786
181,0.92545
182,0.92199
183,0.91923
184,0.93127
185,0.92207
186,0.93609
187,0.94320
188,0.92516
189,0.93168
190,0.93150
191,0.93002
192,0.93488
193,0.93894
194,0.94122
195,0.93937
196,0.92525
197,0.94069
198,0.95792
199,0.94512
200,0.92855
201,0.92264
202,0.92338
203,0.91168
204,0.89398
205,0.88627
206,0.88453
207,0.85947
208,0.84337
209,0.83488
210,0.82840
211,0.82403
212,0.82687
213,0.84110
214,0.86825
215,0.87973
216,0.87285
217,0.90136
218,0.91538
219,0.94147
220,0.95904
221,0.95273
222,0.96631
223,0.96845
224,0.97224
225,0.98308
226,0.99491
227,0.99753
228,0.98933
229,1.00229
230,1.00581
231,0.99940
232,0.99148
233,0.98867
234,1.00433
235,0.99453
236,0.98372
237,0.97609
238,0.96895
239,0.95260
240,0.95161
241,0.98612
242,0.99493
243,0.99658
244,0.99718
245,0.98246
246,0.97606
247,0.98983
248,0.99539
249,0.98970
250,0.99276
251,0.98873
252,0.97867
253,0.96347
254,0.97086
255,0.99107
256,0.97453
257,0.94835
258,0.93084
259,0.89091
260,0.85798
261,0.84392
262,0.84023
263,0.86892
264,0.89022
265,0.89887
266,0.92923
267,0.95629
268,0.97617
269,0.97573
270,0.97892
271,0.99358
272,0.98034
273,0.99251
274,1.00519
275,1.01535
276,1.01068
277,0.99118
278,1.00403
279,1.00739
280,0.99847
281,0.99812
282,0.99983
283,0.98764
284,0.97842
285,0.96856
286,0.95912
287,0.96262
288,0.95002
289,0.92121
290,0.93981
291,0.93795
292,0.90374
293,0.89525
294,0.87622
295,0.84300
296,0.81231
297,0.79326
298,0.76938
299,0.74519
300,0.71152
301,0.66461
302,0.62417
303,0.59397
304,0.58892
305,0.57915
306,0.58937
307,0.62372
308,0.64498
309,0.68317
310,0.74188
311,0.78745
312,0.83131
313,0.88390
314,0.92467
315,0.98215
316,1.02200
317,1.02685
318,1.01982
319,1.01560
320,1.01675
321,1.01496
322,1.00521
323,1.01140
324,1.00560
325,0.98304
326,0.97707
327,0.98332
328,0.99512
329,0.98687
330,0.98846
331,0.99634
332,0.98753
333,0.97737
334,0.98216
335,1.00165
336,1.00987
337,0.99616
338,0.99738
339,1.02540
340,1.01980
341,1.00330
342,1.00129
343,1.00018
344,1.01164
345,1.00464
346,0.99226
347,0.98491
348,0.98411
349,0.97999
350,0.97128
351,0.99096
352,0.99862
353,0.99531
354,1.02199
355,1.03060
356,1.00958
357,1.00988
358,0.99815
359,0.97440
360,0.97597
361,1.00443
362,1.02076
363,1.01199
364,1.01075
365,1.02130
366,1.00890
367,1.01310
368,1.04264
369,1.01583
370,0.99135
371,1.00160
372,1.01075
373,1.01785
374,1.01370
375,1.03329
376,1.04228
377,1.01655
378,1.01084
379,1.01655
380,1.01777
381,1.02298
382,1.02168
383,1.01235
384,1.02090
385,1.00516
386,1.00146
387,1.00415
388,1.00103
389,0.98367
390,0.95646
391,0.96002
392,0.95551
393,0.97599
394,1.01201
395,1.02698
396,1.01978
397,1.00243
398,0.96234
399,0.92912
400,0.96191
401,0.99961
402,1.00731
403,1.01398
404,1.01188
405,1.01857
406,1.01883
407,1.00199
408,1.00647
409,1.02659
410,1.03552
411,1.03627
412,1.02519
413,1.00908
414,1.00183
415,1.00004
416,1.01830
417,1.03196
418,1.01810
419,1.02260
420,1.02524
421,1.01300
422,1.00517
423,1.01011
424,1.00862
425,1.00718
426,1.02309
427,1.01339
428,1.00735
429,1.01877
430,1.01579
431,1.01261
432,1.02839
433,1.02383
434,1.02156
435,1.02616
436,1.02156
437,1.01900
438,1.01729
439,1.02180
440,1.02891
441,1.01926
442,1.01146
443,1.02197
444,1.02334
445,1.01831
446,1.01971
447,1.02000
448,1.01230
449,1.01538
450,1.00846
451,1.01219
452,1.03138
453,1.03840
454,1.03510
455,1.04424
456,1.08402
457,1.09328
458,1.09656
459,1.08507
460,1.02775
461,0.98895
462,0.97608
463,0.95932
464,0.93488
465,0.93452
466,0.94961
467,0.94324
468,0.92808
469,0.93098
470,0.94450
471,0.93158
472,0.91358
473,0.89473
474,0.88355
475,0.88705
476,0.86230
477,0.84160
478,0.85006
479,0.83932
480,0.81675
481,0.81017
482,0.79040
483,0.78948
484,0.77864
485,0.75469
486,0.76320
487,0.74702
488,0.71622
489,0.69443
490,0.67201
491,0.64104
492,0.61911
493,0.58522
494,0.55750
495,0.55398
496,0.50627
497,0.44428
498,0.42545
499,0.40048
500,0.34579
501,0.30388
502,0.25725
503,0.20590
504,0.14613
505,0.09730
506,0.07158
507,0.05450
508,0.03012
509,0.00730
510,0.00431
511,0.01524
512,0.05115
513,0.09217
514,0.13277
515,0.17771
516,0.22038
517,0.26468
518,0.31728
519,0.35179
520,0.38131
521,0.43813
522,0.48796
523,0.50529
524,0.52920
525,0.56535
526,0.58699
527,0.61532
528,0.66116
529,0.70234
530,0.69739
531,0.69423
532,0.73563
533,0.75387
534,0.75824
535,0.78084
536,0.79499
537,0.79933
538,0.79799
539,0.80720
540,0.81755
541,0.82770
542,0.84631
543,0.84235
544,0.84480
545,0.85196
546,0.84534
547,0.84520
548,0.86288
549,0.88188
550,0.88036
551,0.87976
552,0.89558
553,0.89899
554,0.88336
555,0.89313
556,0.89885
557,0.91090
558,0.91840
559,0.90684
560,0.91567
561,0.92235
562,0.92902
563,0.92024
564,0.90943
565,0.92119
566,0.92540
567,0.92805
568,0.92685
569,0.92828
570,0.94254
571,0.93385
572,0.93390
573,0.95962
574,0.96106
575,0.96821
576,0.98477
577,0.98506
578,0.98233
579,0.97428
580,0.98074
581,0.98822
582,0.98329
583,0.97518
584,0.98767
585,1.00455
586,1.00191
587,0.99020
588,0.96989
589,0.95161
590,0.95596
591,0.94941
592,0.94109
593,0.95631
594,0.95348
595,0.92465
596,0.90691
597,0.91403
598,0.90664
599,0.89657
600,0.90395
601,0.92242
602,0.95459
603,0.97006
604,0.96317
605,0.97411
606,0.98960
607,0.99637
608,0.99548
609,0.98090
610,0.98537
611,1.01194
612,1.01095
613,0.99780
614,1.01332
615,1.01995
616,1.02460
617,1.02544
618,1.00822
619,1.02561
620,1.01660
621,0.98697
622,0.99326
623,1.01123
624,1.03201
625,1.01839
626,1.00804
627,1.00795
628,0.99970
629,1.01335
630,1.02394
631,1.03496
632,1.04004
633,1.01592
634,1.01126
635,1.00578
636,1.00823
637,1.00967
638,1.01484
639,1.01647
640,0.96842
641,0.92435
642,0.89108
