Distance_(pixels),Gray_Value
0,0.94649
1,0.94330
2,0.94331
3,0.95106
4,0.95634
5,0.94903
6,0.93591
7,0.92731
8,0.91449
9,0.92165
10,0.94254
11,0.94509
12,0.92431
13,0.91947
14,0.92678
15,0.93618
16,0.92544
17,0.89792
18,0.91399
19,0.92202
20,0.91132
21,0.90049
22,0.88281
23,0.87923
24,0.88347
25,0.88927
26,0.88522
27,0.86390
28,0.86663
29,0.87391
30,0.86054
31,0.85222
32,0.84976
33,0.83511
34,0.82998
35,0.82650
36,0.81933
37,0.81546
38,0.80238
39,0.80437
40,0.80082
41,0.78687
42,0.77813
43,0.77313
44,0.75390
45,0.75275
46,0.74788
47,0.73121
48,0.72907
49,0.70928
50,0.69796
51,0.69982
52,0.69513
53,0.66668
54,0.63026
55,0.62651
56,0.62682
57,0.59988
58,0.56360
59,0.52954
60,0.50665
61,0.49169
62,0.45505
63,0.41267
64,0.37638
65,0.34229
66,0.30225
67,0.25032
68,0.21646
69,0.19776
70,0.17950
71,0.14636
72,0.10007
73,0.05502
74,0.04830
75,0.03463
76,0.02140
77,0.03036
78,0.02930
79,0.04164
80,0.06406
81,0.09052
82,0.08650
83,0.10191
84,0.15667
85,0.18230
86,0.20953
87,0.25393
88,0.29726
89,0.34032
90,0.37826
91,0.40640
92,0.43542
93,0.47060
94,0.51034
95,0.53574
96,0.53880
97,0.56557
98,0.61464
99,0.62436
100,0.63155
101,0.64943
102,0.66904
103,0.69333
104,0.69984
105,0.70781
106,0.73938
107,0.76772
108,0.76606
109,0.77735
110,0.78003
111,0.76735
112,0.77837
113,0.80560
114,0.81105
115,0.81830
116,0.83150
117,0.83001
118,0.82463
119,0.83312
120,0.84406
121,0.84062
122,0.84105
123,0.83423
124,0.83852
125,0.83573
126,0.84540
127,0.86488
128,0.86690
129,0.88632
130,0.89916
131,0.89311
132,0.88150
133,0.89730
134,0.91409
135,0.90132
136,0.90333
137,0.90949
138,0.91421
139,0.92203
140,0.91956
141,0.92446
142,0.92066
143,0.91372
144,0.91830
145,0.92034
146,0.90557
147,0.90197
148,0.91483
149,0.91996
150,0.92691
151,0.94044
152,0.93169
153,0.92463
154,0.92821
155,0.91866
156,0.92075
157,0.92279
158,0.90450
159,0.91278
160,0.93868
161,0.93810
162,0.94394
163,0.93530
164,0.92692
165,0.93338
166,0.94409
167,0.94629
168,0.92132
169,0.90469
170,0.88218
171,0.88012
172,0.89468
173,0.89414
174,0.87822
175,0.83625
176,0.82824
177,0.82937
178,0.83343
179,0.85355
180,0.86351
181,0.88868
182,0.90122
183,0.89522
184,0.92201
185,0.93486
186,0.93306
187,0.95121
188,0.95387
189,0.96230
190,0.96284
191,0.95494
192,0.98040
193,1.00290
194,0.98998
195,0.99772
196,1.00879
197,0.99335
198,0.98039
199,0.95760
200,0.95484
201,0.97454
202,0.98852
203,0.98688
204,0.97655
205,0.97128
206,0.95011
207,0.95104
208,0.96812
209,0.97037
210,0.98536
211,0.98987
212,0.99754
213,1.01222
214,1.01900
215,1.00450
216,0.99512
217,1.00417
218,0.99238
219,0.98263
220,0.98836
221,0.98110
222,0.96498
223,0.95005
224,0.92833
225,0.91384
226,0.90339
227,0.88074
228,0.86196
229,0.86233
230,0.87958
231,0.90798
232,0.92261
233,0.93303
234,0.97276
235,0.98783
236,0.97029
237,0.96896
238,0.97342
239,0.97140
240,0.98459
241,1.00346
242,1.00931
243,1.00123
244,1.00019
245,0.99114
246,0.98038
247,0.98868
248,0.97632
249,0.97512
250,0.96584
251,0.96630
252,0.97287
253,0.95437
254,0.95294
255,0.93669
256,0.91218
257,0.92134
258,0.91610
259,0.89419
260,0.86821
261,0.83966
262,0.83031
263,0.81007
264,0.79219
265,0.75755
266,0.70877
267,0.66536
268,0.62904
269,0.59690
270,0.56920
271,0.56440
272,0.57373
273,0.60655
274,0.63448
275,0.66427
276,0.71587
277,0.75556
278,0.80230
279,0.86048
280,0.89207
281,0.92784
282,0.98368
283,1.01752
284,1.02103
285,1.02719
286,1.01768
287,0.99615
288,0.99885
289,1.00894
290,1.00886
291,1.00746
292,1.00052
293,0.98258
294,0.97721
295,0.97036
296,0.97723
297,0.97080
298,0.96589
299,0.98210
300,0.98857
301,0.99645
302,1.01372
303,1.03361
304,1.01396
305,1.00203
306,1.02481
307,1.01550
308,1.00619
309,1.03150
310,1.02030
311,0.99527
312,0.99656
313,0.99790
314,0.97323
315,0.96880
316,0.98294
317,0.98319
318,0.99263
319,0.98847
320,0.99592
321,1.02318
322,1.03369
323,1.01842
324,1.00587
325,0.99849
326,0.99185
327,1.00735
328,1.01377
329,1.01075
330,1.00173
331,1.00975
332,1.02557
333,1.02896
334,1.02336
335,1.02436
336,1.01669
337,1.00855
338,1.01957
339,1.02472
340,1.01554
341,1.00983
342,1.02698
343,1.02249
344,1.02527
345,1.02843
346,1.00355
347,1.00748
348,1.03422
349,1.01664
350,1.00066
351,1.01218
352,1.00308
353,0.98151
354,0.98080
355,0.99403
356,0.98730
357,0.96987
358,0.96449
359,0.97232
360,0.98551
361,0.99989
362,1.00713
363,1.01373
364,0.98306
365,0.92233
366,0.94063
367,1.00635
368,1.02125
369,1.01525
370,1.01719
371,1.02542
372,1.01925
373,1.01736
374,1.01778
375,1.00688
376,1.00630
377,1.01736
378,1.01275
379,1.00617
380,1.01926
381,1.01571
382,1.00950
383,1.01918
384,1.01596
385,1.00873
386,1.01930
387,1.02483
388,1.01455
389,1.00866
390,1.02374
391,1.02227
392,1.00848
393,1.01144
394,1.01411
395,0.99779
396,0.99727
397,1.00345
398,1.00106
399,0.99907
400,1.00378
401,1.02979
402,1.02630
403,1.00097
404,1.01432
405,1.02517
406,1.00561
407,1.00931
408,1.01299
409,1.00416
410,1.01693
411,1.03021
412,1.02343
413,1.01486
414,1.02497
415,1.01433
416,1.00158
417,1.01653
418,1.02131
419,1.01695
420,1.02073
421,1.01648
422,1.00189
423,0.98385
424,0.98161
425,0.99627
426,0.99311
427,0.99115
428,0.98956
429,0.98800
430,0.97702
431,0.95937
432,0.96450
433,0.95999
434,0.93694
435,0.93993
436,0.94236
437,0.93455
438,0.92456
439,0.92081
440,0.91208
441,0.88047
442,0.86966
443,0.86551
444,0.85423
445,0.83500
446,0.81122
447,0.81301
448,0.82184
449,0.78492
450,0.76734
451,0.76394
452,0.74708
453,0.74822
454,0.74138
455,0.73856
456,0.76525
457,0.77093
458,0.72995
459,0.68473
460,0.62503
461,0.55796
462,0.52465
463,0.49418
464,0.44364
465,0.39458
466,0.35889
467,0.31820
468,0.26107
469,0.20584
470,0.16547
471,0.14553
472,0.10132
473,0.05010
474,0.02347
475,0.01027
476,0.02006
477,0.01580
478,0.02816
479,0.08355
480,0.11510
481,0.13484
482,0.17157
483,0.23116
484,0.27787
485,0.32330
486,0.36671
487,0.40442
488,0.44744
489,0.48319
490,0.52214
491,0.57147
492,0.62534
493,0.63393
494,0.63341
495,0.67273
496,0.68324
497,0.69718
498,0.71242
499,0.71153
500,0.74438
501,0.74725
502,0.75597
503,0.78838
504,0.79067
505,0.79909
506,0.82453
507,0.83163
508,0.82880
509,0.83283
510,0.82918
511,0.81793
512,0.83584
513,0.86164
514,0.87084
515,0.87255
516,0.86645
517,0.88105
518,0.89235
519,0.89244
520,0.89673
521,0.90355
522,0.90648
523,0.91029
524,0.90678
525,0.89949
526,0.90785
527,0.90278
528,0.89054
529,0.89279
530,0.91313
531,0.92455
532,0.92933
533,0.92580
534,0.93199
535,0.94640
536,0.96042
537,0.95434
538,0.94708
539,0.96038
540,0.96817
541,0.96731
542,0.96462
543,0.97041
544,0.97138
545,0.98275
546,0.99580
547,0.97545
548,0.97298
549,0.99816
550,1.00141
551,0.99761
552,0.99148
553,0.99358
554,0.98339
555,0.97588
556,0.97231
557,0.97033
558,0.96967
559,0.95331
560,0.94129
561,0.91819
562,0.90997
563,0.90620
564,0.89672
565,0.91186
566,0.92516
567,0.94016
568,0.95075
569,0.95011
570,0.95849
571,0.95861
572,0.94934
573,0.94969
574,0.97345
575,0.99794
576,1.00244
577,0.99499
578,0.99658
579,1.01492
580,1.01145
581,1.01312
582,1.02449
583,1.02357
584,1.01526
585,1.00426
586,1.00631
587,1.01368
588,1.02048
589,1.02796
590,1.03539
591,1.03070
592,1.01942
593,1.02092
594,1.02165
595,1.01874
596,1.00968
597,1.01850
598,1.03138
599,1.02461
600,1.01230
601,1.01201
602,1.01766
603,1.00913
604,1.00405
605,0.99064
606,0.97194
607,0.94548
608,0.90672
609,0.87894
610,0.85971
611,0.84435
612,0.83310
613,0.84520
614,0.85916
615,0.84937
616,0.86192
617,0.87069
618,0.88581
619,0.91723
620,0.91748
621,0.91776
622,0.93256
623,0.93647
624,0.93460
625,0.93030
626,0.91623
627,0.91053
628,0.92840
629,0.96294
630,0.96468
631,0.95325
632,0.96356
633,0.98619
634,1.00533
635,1.00365
636,0.99705
637,0.99891
638,1.01029
639,1.00305
640,1.01177
641,1.01848
642,1.00763
