
#	Frequency [MHz]	Amplitude [K]
	1419.434709	212.744133
	1419.439447	211.435367
	1419.444185	212.058333
	1419.448923	209.694900
	1419.453661	212.497533
	1419.458399	214.895333
	1419.463137	212.454900
	1419.467875	212.764800
	1419.472613	212.229633
	1419.477351	212.361433
	1419.482089	212.077200
	1419.486827	210.302867
	1419.491565	212.494633
	1419.496303	214.038133
	1419.501041	212.557900
	1419.505779	212.955800
	1419.510517	213.127633
	1419.515255	211.430867
	1419.519993	212.596467
	1419.524731	210.913800
	1419.529469	213.301233
	1419.534207	213.846400
	1419.538945	211.047567
	1419.543683	211.784467
	1419.548421	212.791967
	1419.553159	211.042067
	1419.557897	211.917267
	1419.562635	211.101133
	1419.567373	212.830767
	1419.572111	213.282900
	1419.576849	209.763000
	1419.581587	212.189967
	1419.586325	212.910000
	1419.591063	212.064600
	1419.595801	211.510633
	1419.600539	212.608833
	1419.605277	212.519400
	1419.610015	211.550233
	1419.614753	209.810700
	1419.619491	214.257967
	1419.624229	211.220467
	1419.628967	211.270067
	1419.633705	210.883833
	1419.638443	210.897767
	1419.643181	211.003967
	1419.647919	212.664700
	1419.652657	211.728100
	1419.657395	212.478200
	1419.662133	211.513533
	1419.666871	211.765333
	1419.671609	211.829600
	1419.676347	214.140033
	1419.681085	211.065667
	1419.685823	211.654000
	1419.690561	209.955633
	1419.695299	211.538700
	1419.700037	214.013300
	1419.704775	211.360900
	1419.709513	212.325567
	1419.714251	213.027500
	1419.718989	211.053867
	1419.723727	210.735967
	1419.728465	211.308967
	1419.733203	210.596333
	1419.737941	213.532267
	1419.742679	212.694267
	1419.747417	213.274067
	1419.752155	210.559667
	1419.756893	213.554867
	1419.761631	211.336100
	1419.766369	211.875700
	1419.771107	211.001067
	1419.775845	212.560233
	1419.780583	212.116733
	1419.785321	210.871133
	1419.790059	210.774867
	1419.794797	211.973767
	1419.799535	213.154267
	1419.804273	212.072733
	1419.809011	210.461000
	1419.813749	210.940700
	1419.818487	211.649600
	1419.823225	212.253000
	1419.827963	211.886233
	1419.832701	209.875367
	1419.837439	212.482133
	1419.842177	212.261800
	1419.846915	211.834367
	1419.851653	211.989933
	1419.856391	213.433800
	1419.861129	212.214767
	1419.865867	210.709200
	1419.870605	213.292800
	1419.875343	213.447133
	1419.880081	213.583367
	1419.884819	211.644033
	1419.889557	210.877500
	1419.894295	209.079100
	1419.899033	210.493000
	1419.903771	211.996800
	1419.908509	212.013333
	1419.913247	211.334800
	1419.917985	212.126000
	1419.922723	212.269233
	1419.927461	211.714800
	1419.932199	212.729467
	1419.936937	212.784267
	1419.941675	212.686433
	1419.946413	211.421867
	1419.951151	211.477433
	1419.955889	211.461133
	1419.960627	212.328933
	1419.965365	210.623633
	1419.970103	210.540167
	1419.974841	212.291433
	1419.979579	212.079867
	1419.984317	211.764467
	1419.989055	212.838867
	1419.993793	211.497233
	1419.998531	212.934267
	1420.003269	211.249700
	1420.008007	212.406033
	1420.012745	213.201267
	1420.017483	212.325500
	1420.022221	211.299467
	1420.026959	212.613900
	1420.031697	209.633700
	1420.036435	213.144033
	1420.041173	211.691067
	1420.045911	210.044667
	1420.050649	212.924800
	1420.055387	210.740400
	1420.060125	212.266133
	1420.064863	212.277533
	1420.069601	211.376667
	1420.074339	210.920400
	1420.079077	211.675100
	1420.083815	211.372067
	1420.088553	212.696700
	1420.093291	211.810567
	1420.098029	210.894433
	1420.102767	211.691467
	1420.107505	213.560833
	1420.112243	210.564100
	1420.116981	211.384800
	1420.121719	212.369300
	1420.126457	211.194000
	1420.131195	212.564233
	1420.135933	211.616600
	1420.140671	213.064967
	1420.145409	212.009133
	1420.150147	212.323900
	1420.154885	211.739633
	1420.159623	212.401900
	1420.164361	212.500100
	1420.169099	211.733600
	1420.173837	211.839167
	1420.178575	210.779433
	1420.183313	212.702667
	1420.188051	211.777767
	1420.192789	213.616067
	1420.197527	212.944700
	1420.202265	213.441000
	1420.207003	213.627233
	1420.211741	212.184900
	1420.216479	213.031733
	1420.221217	212.525000
	1420.225955	211.348267
	1420.230693	213.494667
	1420.235431	211.774133
	1420.240169	211.499033
	1420.244907	211.994567
	1420.249645	213.386500
	1420.254383	211.178233
	1420.259121	211.184433
	1420.263859	210.218133
	1420.268597	214.400600
	1420.273335	212.522600
	1420.278073	210.532000
	1420.282811	212.821100
	1420.287549	211.530433
	1420.292287	212.075433
	1420.297025	214.006467
	1420.301763	212.229433
	1420.306501	211.827000
	1420.311239	211.879867
	1420.315977	210.368267
	1420.320715	213.481967
	1420.325453	211.982367
	1420.330191	211.873367
	1420.334929	213.498533
	1420.339667	212.681967
	1420.344405	211.728267
	1420.349143	212.158367
	1420.353881	213.149567
	1420.358619	213.156733
	1420.363357	213.021267
	1420.368095	212.364100
	1420.372833	212.707400
	1420.377571	212.689400
	1420.382309	213.146533
	1420.387047	211.828733
	1420.391785	216.814400
	1420.396523	219.819800
	1420.401261	225.656933
	1420.405999	229.211533
	1420.410737	232.268433
	1420.415475	239.416833
	1420.420213	243.148500
	1420.424951	245.657633
	1420.429689	247.090633
	1420.434427	248.181400
	1420.439165	250.379733
	1420.443903	247.977500
	1420.448641	250.692700
	1420.453379	248.678533
	1420.458117	249.638000
	1420.462855	247.315100
	1420.467593	246.429200
	1420.472331	245.739367
	1420.477069	244.354133
	1420.481807	246.154700
	1420.486545	245.550667
	1420.491283	246.729633
	1420.496021	245.983067
	1420.500759	245.662167
	1420.505497	243.009100
	1420.510235	241.042333
	1420.514973	242.777367
	1420.519711	239.271967
	1420.524449	239.998600
	1420.529187	235.839200
	1420.533925	235.248933
	1420.538663	232.636167
	1420.543401	232.069167
	1420.548139	232.485567
	1420.552877	233.320533
	1420.557615	233.214733
	1420.562353	234.691300
	1420.567091	237.424567
	1420.571829	239.878567
	1420.576567	241.512867
	1420.581305	243.740600
	1420.586043	247.088533
	1420.590781	249.518400
	1420.595519	253.228733
	1420.600257	254.642267
	1420.604995	255.218400
	1420.609733	257.514967
	1420.614471	258.913133
	1420.619209	258.189300
	1420.623947	258.656233
	1420.628685	258.210600
	1420.633423	257.792567
	1420.638161	260.302900
	1420.642899	257.110567
	1420.647637	256.751133
	1420.652375	249.793467
	1420.657113	248.289633
	1420.661851	247.540200
	1420.666589	243.465533
	1420.671327	241.005700
	1420.676065	239.950767
	1420.680803	240.124767
	1420.685541	237.741867
	1420.690279	233.403867
	1420.695017	231.900833
	1420.699755	231.858767
	1420.704493	231.231733
	1420.709231	230.462967
	1420.713969	229.009833
	1420.718707	227.484100
	1420.723445	224.369367
	1420.728183	226.230067
	1420.732921	223.376700
	1420.737659	221.784667
	1420.742397	220.965767
	1420.747135	220.036700
	1420.751873	217.898033
	1420.756611	218.866800
	1420.761349	220.838600
	1420.766087	219.500233
	1420.770825	223.452333
	1420.775563	222.677233
	1420.780301	222.976467
	1420.785039	224.039400
	1420.789777	223.946833
	1420.794515	222.132967
	1420.799253	223.320100
	1420.803991	222.580967
	1420.808729	220.393733
	1420.813467	220.542333
	1420.818205	219.485667
	1420.822943	220.598033
	1420.827681	220.499367
	1420.832419	219.654467
	1420.837157	217.328267
	1420.841895	218.369733
	1420.846633	218.065667
	1420.851371	220.088200
	1420.856109	218.192667
	1420.860847	215.923433
	1420.865585	218.273333
	1420.870323	217.505833
	1420.875061	218.912600
	1420.879799	215.531800
	1420.884537	217.619300
	1420.889275	214.331500
	1420.894013	215.742733
	1420.898751	215.211767
	1420.903489	213.465733
	1420.908227	214.970200
	1420.912965	213.079867
	1420.917703	212.301167
	1420.922441	212.534700
	1420.927179	213.581100
	1420.931917	213.778700
	1420.936655	212.090233
	1420.941393	212.921467
	1420.946131	211.441567
	1420.950869	213.806133
	1420.955607	211.750100
	1420.960345	212.303000
	1420.965083	212.065600
	1420.969821	211.590800
	1420.974559	212.183633
	1420.979297	212.584333
	1420.984035	210.765667
	1420.988773	211.990667
	1420.993511	212.566833
	1420.998249	213.445400
	1421.002987	211.191000
	1421.007725	213.393167
	1421.012463	210.887367
	1421.017201	211.122433
	1421.021939	209.771600
	1421.026677	211.762000
	1421.031415	212.782900
	1421.036153	212.502433
	1421.040891	213.480533
	1421.045629	211.874167
	1421.050367	211.831833
	1421.055105	211.722433
	1421.059843	211.957133
	1421.064581	211.541367
	1421.069319	213.747467
	1421.074057	212.585200
	1421.078795	212.252400
	1421.083533	211.288500
	1421.088271	208.760767
	1421.093009	211.497633
	1421.097747	211.227533
	1421.102485	212.273867
	1421.107223	212.842067
	1421.111961	211.127200
	1421.116699	213.085367
	1421.121437	213.141833
	1421.126175	212.573033
	1421.130913	211.251033
	1421.135651	212.088633
	1421.140389	212.844367
	1421.145127	212.363700
	1421.149865	212.383367
	1421.154603	214.121567
	1421.159341	214.049467
	1421.164079	212.104333
	1421.168817	213.557167
	1421.173555	214.672300
	1421.178293	212.139367
	1421.183031	210.643900
	1421.187769	211.735267
	1421.192507	211.571233
	1421.197245	213.305300
	1421.201983	211.753500
	1421.206721	212.806433
	1421.211459	209.924900
	1421.216197	212.099100
	1421.220935	212.959467
	1421.225673	212.213967
	1421.230411	211.199467
	1421.235149	210.737200
	1421.239887	214.108900
	1421.244625	210.895567
	1421.249363	210.968167
	1421.254101	210.691000
	1421.258839	212.602300
	1421.263577	212.056233
	1421.268315	212.499633
	1421.273053	210.227533
	1421.277791	213.335533
	1421.282529	210.830933
	1421.287267	212.793733
	1421.292005	213.523567
	1421.296743	211.751700
	1421.301481	211.663467
	1421.306219	211.945367
	1421.310957	211.908933
	1421.315695	211.825400
	1421.320433	210.309267
	1421.325171	213.385300
	1421.329909	213.997000
	1421.334647	210.320533
	1421.339385	213.496233
	1421.344123	212.772400
	1421.348861	213.077600
	1421.353599	210.249467
	1421.358337	211.379767
	1421.363075	213.058233
	1421.367813	212.022300
	1421.372551	209.413033
	1421.377289	212.278000
	1421.382027	213.301667
	1421.386765	209.800500
	1421.391503	211.299833
	1421.396241	212.494367
	1421.400979	212.238000
	1421.405717	211.980133
	1421.410455	211.271367
	1421.415193	212.059967
	1421.419931	213.336400
	1421.424669	212.389033
